Place,Name,Sex,BirthDate,Age,Equipment,Division,BodyweightKg,WeightClassKg,Squat1Kg,Squat2Kg,Squat3Kg,Squat4Kg,Best3SquatKg,Bench1Kg,Bench2Kg,Bench3Kg,Best3BenchKg,Deadlift1Kg,Deadlift2Kg,Deadlift3Kg,Best3DeadliftKg,TotalKg,Event
1,Elaine Yu,F,1985-07-26,,Raw,F-O-S,65.06,67.5,122.5,130,135,,135,72.5,77.5,80,80,167.5,177.5,185,185,400,SBD
1,Kit Denton,F,1990-09-04,,Raw,F-O,50.6,52,,,,,,30,35,-37.5,35,80,85,-90,85,120,BD
1,Bash Omer,M,2001-02-14,,Raw,M-J-S,80.25,82.5,170,190,-210,,190,110,120,-132.5,120,-220,240,-250,240,550,SBD
1,Daniel Taylor,M,2001-01-01,,Raw,M-J-S,87.6,90,175,185,190,,190,95,100,-105,100,220,230,-245,230,520,SBD
1,Richard Cooling,M,1984-01-23,,Raw,M-M1-S,135.5,140,250,275,,,275,147.5,152.5,-160,152.5,255,275,,275,702.5,SBD
1,Zilvinas Peldzius,M,1988-10-12,,Raw,M-O-S,99.8,100,230,252.5,-257.5,,252.5,175,190,-200,190,260,-280,280,280,722.5,SBD
1,Charles McGivern,M,1995-12-16,,Raw,M-O-S,116.55,125,250,272.5,,,272.5,150,165,172.5,172.5,335,372.5,,372.5,817.5,SBD
1,Harry Davies,M,2005-10-30,,Raw,M-T3-S,85.3,90,152.5,165,-170,,165,90,97.5,102.5,102.5,180,190,200,200,467.5,SBD
1,Adam Rowley,M,2001-07-29,,Wraps,M-J,81.2,82.5,175,,,,175,110,115,,115,200,,,200,490,SBD
1,Ben Gibson #2,M,2000-09-15,,Wraps,M-J,144.6,140+,305,315,330,,330,185,200,205,205,315,330,-340,330,865,SBD
1,Soheel Zia,M,1980-08-06,,Wraps,M-M1,74.65,75,150,170,-180,,170,110,120,-125,120,180,200,,200,490,SBD
1,Stephen Ashford,M,1979-05-21,,Wraps,M-M1,123.5,125,240,260,-270,,260,150,170,,170,250,265,270,270,700,SBD
1,Phil Pritchard,M,1962-11-06,,Wraps,M-M5,99.45,100,130,140,150,,150,80,85,90,90,190,216,,216,456,SBD
1,Zia Mirza,M,1956-12-11,,Wraps,M-M6,66.25,67.5,100,115,,,115,50,55,,55,130,145,160,160,330,SBD
1,Joshua Bolton,M,1994-01-19,,Wraps,M-O,98.5,100,-160,-165,170,,170,155,160,165,165,200,215,230,230,565,SBD
1,Jake Maguire,M,1990-01-29,,Wraps,M-O,111,125,260,280,-300,,280,170,180,190,190,230,240,250,250,720,SBD
2,James Pollard #2,M,1990-03-19,,Wraps,M-O,112.85,125,250,260,-265,,260,160,-170,-170,160,275,-285,,275,695,SBD
3,Solomon Zia,M,1986-12-23,,Wraps,M-O,124.6,125,170,190,-210,,190,110,125,140,140,170,190,210,210,540,SBD
1,Ashley Quigley,M,1987-04-21,,Wraps,M-O,137.2,140,-215,215,227.5,,227.5,162.5,-172.5,-172.5,162.5,227.5,242.5,-250,242.5,632.5,SBD
1,Curtis Thompson,M,1994-09-15,,Wraps,M-O,151.85,140+,275,300,-320,,300,165,180,-185,180,280,300,-320,300,780,SBD
1,Thomas Campbell,M,,18,Raw,M-T3-S,101.7,110,140,160,-200,200,160,-100,110,115,115,245,-260,-260,245,520,SBD
1,Sean Smith #4,M,1986-04-10,,Raw,M-O,74.95,75,,,,,,117.5,122.5,125,125,250,-260,,250,375,BD
1,Paul Fallows,M,1982-09-22,,Raw,M-M1,105.65,110,,,,,,150,155,-160,155,,,,,155,B
1,Mihails Monastirskis,M,1983-08-26,,Raw,M-M1,112.75,125,,,,,,245,250,255,255,,,,,255,B
1,Marcel Kucerak,M,1984-08-18,,Raw,M-O,101.9,110,,,,,,160,-175,175,175,,,,,175,B
