Sex,Event,Equipment,Division,WeightClassKg,Name,Best3SquatKg,Squat4Kg,Best3BenchKg,Bench4Kg,Best3DeadliftKg,Deadlift4Kg,TotalKg,BodyweightKg,BirthDate,Place
F,SBD,Wraps,Amateur Teen 16-17,52,Nora Fields,104.33,,54.43,,115.67,122.47,274.42,50.98,,1
F,SBD,Wraps,Amateur Teen 16-17,52,Gianna Apostolakos,74.84,,49.9,,122.47,,247.21,51.23,,2
F,SBD,Wraps,Amateur Teen 18-19,67.5,Amalia Armstrong,113.4,,54.43,,120.2,124.74,288.03,64.05,,1
F,SBD,Wraps,Amateur Teen 18-19,75,Emily Kurth,102.06,,56.7,,156.49,,315.25,72.96,,1
F,SBD,Wraps,Amateur Submasters 33-39,90,Gabrielle Benner,156.49,,83.91,,158.76,,399.16,88.45,,1
F,SBD,Wraps,Amateur Masters 55-59,67.5,Susanne Fuhrman,90.72,,46.49,47.63,113.4,,250.61,67.45,,1
F,SBD,Wraps,Amateur Masters 55-59,67.5,Lori Snook,79.38,,40.82,,124.74,,244.94,66.04,,2
F,SBD,Wraps,Amateur Masters 60-64,67.5,Lynn Kreider,68.04,,49.9,,102.06,,219.99,62.37,,1
F,SBD,Multi-ply,Amateur Teen 13-15,52,Caylee Navas,99.79,114.53,66.9,,110,115.67,276.69,50.67,,1
F,SBD,Wraps,Pro Juniors 20-23,67.5,Tori Suhy,154.22,,92.99,,165.56,,412.77,67.09,,1
F,SBD,Wraps,Pro Open,67.5,Leia Rivera,140.61,,86.18,,162.16,,388.96,66.41,,1
F,SBD,Wraps,Pro Open,100,Karrie Macknair,199.58,,131.54,,226.8,,557.92,94.89,,1
F,SBD,Wraps,Pro Submasters 33-39,100,Karrie Macknair,199.58,,131.54,,226.8,,557.92,94.89,,1
F,SBD,Multi-ply,Pro Open,60,Maura Alessi,210.92,,65.77,,158.76,,435.45,59.42,,1
F,SBD,Unlimited,Pro Masters 55-59,67.5,Denise Marais,174.63,,154.22,,151.95,,480.81,64.86,,1
F,B,Multi-ply,Amateur Masters 45-49,56,Lori Turofski,,,141.11,142.88,,,141.11,54.91,,1
M,SBD,Wraps,Amateur Teen 13-15,52,Isaiah Kyle,79.38,95.25,40.82,,99.79,,219.99,47.24,,1
M,SBD,Wraps,Amateur Teen 13-15,67.5,Landon Marsh,102.06,,106.59,,124.74,,333.39,64.46,,1
M,SBD,Wraps,Amateur Teen 16-17,75,Luke Dumm,183.7,,120.2,,188.24,,492.15,72.53,,1
M,SBD,Wraps,Amateur Teen 16-17,82.5,Alex Dubbs,156.49,,92.99,,154.22,,403.7,78.68,,1
M,SBD,Wraps,Amateur Teen 16-17,90,Nasean Green,167.83,181.44,129.27,,210.92,,508.02,86.61,,1
M,SBD,Wraps,Amateur Teen 18-19,67.5,Nate Fleck,170.1,188.24,102.06,106.59,188.24,,460.4,66.5,,1
M,SBD,Wraps,Amateur Juniors 20-23,90,Dylan Berezin,258.55,,133.81,,233.6,,625.96,87.72,,1
M,SBD,Wraps,Amateur Juniors 20-23,90,Tim Shawley,213.19,,124.74,,231.33,,569.26,85.93,,2
M,SBD,Wraps,Amateur Juniors 20-23,90,Sean McCormick,172.37,,97.52,,206.38,,476.27,88.59,,3
M,SBD,Wraps,Amateur Juniors 20-23,125,Bryce Miller,265.35,,183.7,192.78,265.35,,714.41,122.22,,1
M,SBD,Wraps,Amateur Open,60,Christopher Spaulding,104.33,,74.84,,115.67,,294.84,58.51,,1
M,SBD,Wraps,Amateur Open,67.5,Corey McLaughlin,147.42,,138.35,,181.44,,467.2,65.82,,1
M,SBD,Wraps,Amateur Open,75,Greg Fuhrman,167.83,,102.06,,190.51,,460.4,73.62,,1
M,SBD,Wraps,Amateur Open,90,Robert Struble,183.7,,131.54,,199.58,,514.83,88.04,,1
M,SBD,Wraps,Amateur Open,100,Jacob Smith #31,278.96,,185.97,,276.69,,741.62,98.02,,1
M,SBD,Wraps,Amateur Open,100,Matthew Leise,233.6,,185.97,,233.6,,653.17,98.16,,2
M,SBD,Wraps,Amateur Open,100,Nicholas Macciocca,199.58,,140.61,,249.48,,589.67,99.31,,3
M,SBD,Wraps,Amateur Open,100,Nicolas Cicero,183.7,,147.42,,226.8,,557.92,95.48,,4
M,SBD,Wraps,Amateur Submasters 33-39,90,William Irwin,274.42,,161.03,,285.76,,721.21,87.95,,1
M,SBD,Wraps,Amateur Submasters 33-39,125,Shawn Tom,238.14,,158.76,,254.01,,650.91,116.12,,1
M,SBD,Wraps,Amateur Submasters 33-39,125,Travis Anlauf,226.8,,147.42,,226.8,,601.01,117.34,,2
M,SBD,Wraps,Amateur Masters 55-59,82.5,Mark Coppolo,190.51,,129.27,,192.78,,512.56,80.49,,1
M,SBD,Wraps,Amateur Masters 65-69,90,David Ellis,77.11,,81.65,,108.86,,267.62,88.45,,1
M,SBD,Wraps,Amateur Masters 40-44,110,Scott Brown,224.53,,158.76,,240.4,,623.69,107.66,,1
M,SBD,Wraps,Amateur Masters 60-64,100,Bill Muse,136.08,,79.38,,154.22,,369.68,98.16,,1
M,SBD,Wraps,Amateur Masters 60-64,125,Floyd Nesbit,167.83,,142.88,,204.12,,514.83,113.51,,1
M,SBD,Wraps,Amateur Masters 80+,67.5,Jan Ditzian,83.91,,61.23,,113.4,,258.55,63.39,,1
M,SBD,Multi-ply,Amateur Teen 13-15,56,Bobby Green,117.93,,90.72,,142.88,,351.53,54.57,,1
M,SBD,Multi-ply,Amateur Teen 16-17,60,Kade Kulpinski,165.56,,122.47,,197.31,,485.34,59.56,,1
M,SBD,Multi-ply,Amateur Teen 16-17,67.5,Thomas Weigle,185.97,,148.55,,214.32,,548.85,65.91,,1
M,SBD,Multi-ply,Amateur Teen 16-17,100,Noah Himes,235.87,,190.51,,208.65,,635.03,99.52,,1
M,SBD,Multi-ply,Amateur Teen 18-19,75,Connor Jones,317.51,,151.95,,260.82,,730.28,73.07,,1
M,SBD,Multi-ply,Amateur Open,90,Nicholas Loan,310.71,,260.82,,210.92,,782.45,83.05,,1
M,SBD,Multi-ply,Amateur Open,100,Thomas Thibault,369.68,,235.87,,288.03,,893.58,98.66,,1
M,SBD,Multi-ply,Amateur Open,100,Garrett Cropp,260.82,,142.88,,197.31,,601.01,92.51,,2
M,SBD,Unlimited,Amateur Open,140+,Ryan Bricker,365.14,,324.32,,247.21,,936.67,147.24,,1
M,SBD,Multi-ply,Amateur Masters 55-59,100,Tom Cillo,142.88,,102.06,,244.94,,489.88,98.82,,1
M,SBD,Multi-ply,Amateur Masters 80+,75,George Christman,140.61,,90.72,,158.76,,390.09,72.14,,1
M,SBD,Wraps,Pro Open,110,David Wahl,249.48,,172.37,,249.48,260.82,671.32,106.82,,1
M,SBD,Wraps,Pro Open,125,Adam Soley,303.91,,176.9,,294.84,,775.64,116.26,,1
M,SBD,Wraps,Pro Submasters 33-39,110,David Wahl,249.48,,172.37,,249.48,260.82,671.32,106.82,,1
M,SBD,Wraps,Pro Masters 40-44,82.5,Robert Brewer,215.46,,133.81,,241.54,,590.8,81.62,,1
M,SBD,Wraps,Pro Masters 60-64,125,Paul Diliberto,258.55,,190.51,,244.94,,694,113.74,,1
M,SBD,Unlimited,Pro Open,125,Derrick Bender,430.91,,419.57,,340.19,,1190.68,118.16,,1
M,SBD,Multi-ply,Pro Open,125,Phillip Herndon,462.66,485.34,344.73,,362.87,,1170.27,121.09,,1
M,SBD,Multi-ply,Pro Open,125,Julian Alessi,378.75,,256.28,,278.96,,913.99,119.52,,2
M,SBD,Unlimited,Pro Submasters 33-39,125,Derrick Bender,430.91,,419.57,,340.19,,1190.68,118.16,,1
M,B,Raw,Amateur Submasters 33-39,82.5,Scott Everhart,,,151.95,,,,151.95,81.37,,1
M,B,Raw,Amateur Masters 40-44,125,Christopher Moore,,,147.42,,,,147.42,119.84,,1
M,B,Raw,Amateur Masters 50-54,110,Trent Strong,,,165.56,,,,165.56,105.87,,1
M,B,Raw,Amateur Masters 60-64,125,Knight Smith,,,181.44,183.7,,,181.44,113.81,,1
M,B,Raw,Amateur Masters 65-69,82.5,Bob Abel,,,111.13,,,,111.13,78.24,,1
M,B,Raw,Amateur Masters 65-69,125,Corey Stein,,,129.27,,,,129.27,120.61,,1
M,B,Multi-ply,Amateur Masters 40-44,100,Andrew Jones,,,181.44,192.78,,,181.44,93.67,,1
M,B,Multi-ply,Amateur Masters 40-44,110,Sherwood Taylor,,,204.12,208.65,,,204.12,103.19,,1
M,B,Multi-ply,Amateur Masters 65-69,110,Mike Cantrell,,,226.8,240.4,,,226.8,108.57,,1
M,B,Raw,Pro Masters 40-44,100,Jeremy Elston,,,183.7,,,,183.7,98.86,,1
M,B,Raw,Pro Masters 40-44,125,Eric Beruck,,,192.78,,,,192.78,119.34,,1
M,B,Raw,Pro Police,100,Jeremy Elston,,,183.7,,,,183.7,98.86,,1
M,B,Unlimited,Pro Masters 40-44,110,Kyle Jason,,,238.14,,,,238.14,109.41,,1
M,B,Unlimited,Pro Masters 60-64,110,Randy Robinson,,,294.84,317.51,,,294.84,107.55,,1
M,B,Unlimited,Pro Police,110,Kyle Jason,,,238.14,,,,238.14,109.41,,1
M,BD,Multi-ply,Amateur Juniors 20-23,75,Dale Rhoads II,,,158.76,,170.1,,328.85,72.76,,1
